Place,Name,Sex,BirthYear,Age,Equipment,Division,BodyweightKg,WeightClassKg,Squat1Kg,Squat2Kg,Squat3Kg,Best3SquatKg,Bench1Kg,Bench2Kg,Bench3Kg,Best3BenchKg,Deadlift1Kg,Deadlift2Kg,Deadlift3Kg,Best3DeadliftKg,TotalKg,Event
1,Caroline Acoca,F,1994,24,Raw,Open,51.45,52,102.5,-110,110,110,62.5,65,67.5,67.5,137.5,145,-155.5,145,322.5,SBD
2,Shelby Trapid,F,1993,25,Raw,Open,49.7,52,90,95,-100,95,42.5,45,-47.5,45,112.5,-117.5,-120,112.5,252.5,SBD
1,Leah Mamane,F,1990,28,Raw,Open,58.3,63,127.5,137.5,145,145,75,80,85,85,150,160,170,170,400,SBD
1,Camille Gaudreau-Levesque,F,1993,26,Raw,Open,71.9,72,155,157.5,160,160,85,-90,-90,85,185,190,-195,190,435,SBD
2,Valérie Lemay,F,1988,31,Raw,Open,70.45,72,142.5,152.5,155,155,80,87.5,90,90,162.5,170,175,175,420,SBD
1,Amarilis Galeano,F,1975,44,Raw,Open,83.45,84,142.5,152.5,160,160,65,-72.5,-72.5,65,142.5,152.5,157.5,157.5,382.5,SBD
2,Lynsay Augustin,F,1983,35,Raw,Open,82.65,84,-112.5,112.5,120,120,50,55,-57.5,55,145,-157.5,-157.5,145,320,SBD
1,Sébastien Larivière,M,1997,22,Raw,Juniors,64.8,66,120,130,135,135,85,90,-95,90,165,177.5,187.5,187.5,412.5,SBD
1,Jonathan Fernandez-Pelletier,M,1998,20,Raw,Juniors,70.55,74,137.5,147.5,155,155,92.5,97.5,-102.5,97.5,140,155,160,160,412.5,SBD
2,Danny Wu,M,1996,23,Raw,Juniors,69.2,74,107.5,120,125,125,80,87.5,92.5,92.5,165,177.5,185,185,402.5,SBD
3,Maxime Delorme,M,1996,23,Raw,Juniors,69.25,74,125,137.5,-145,137.5,85,-90,-90,85,165,172.5,-180,172.5,395,SBD
1,Carlos Garcés,M,1998,21,Raw,Juniors,80.25,83,215,227.5,235,235,140,145,150,150,240,252.5,-260,252.5,637.5,SBD
2,Hugo Bouthiette,M,1997,21,Raw,Juniors,78.3,83,212.5,222.5,225,225,142.5,147.5,-155,147.5,250,262.5,-270,262.5,635,SBD
3,Fabien Bueno,M,1997,21,Raw,Juniors,82.45,83,210,220,225,225,120,130,137.5,137.5,250,265,-275,265,627.5,SBD
4,Gabriel Gauthier,M,1997,22,Raw,Juniors,79.35,83,162.5,172.5,175,175,102.5,110,-115,110,175,190,200,200,485,SBD
1,Shawn Carleton,M,1998,21,Raw,Juniors,88.7,93,165,180,190,190,115,122.5,127.5,127.5,197.5,215,-230,215,532.5,SBD
2,Samuel Fortin,M,1996,23,Raw,Juniors,91.35,93,142.5,152.5,162.5,162.5,-102.5,107.5,-115,107.5,195,212.5,227.5,227.5,497.5,SBD
1,Mathieu Bouchard Laberge,M,1997,21,Raw,Juniors,102.65,105,197.5,202.5,212.5,212.5,115,122.5,-127.5,122.5,-225,225,-232.5,225,560,SBD
1,Alexis Lacombe,M,1996,22,Raw,Juniors,114.75,120,240,260,272.5,272.5,140,150,157.5,157.5,265,285,307.5,307.5,737.5,SBD
2,Felix Lefebvre,M,1998,21,Raw,Juniors,107.35,120,175,187.5,200,200,125,137.5,140,140,210,230,250,250,590,SBD
1,Jérôme Bouffard,M,1973,45,Raw,Masters 1,65,66,150,162.5,-167.5,162.5,100,-107.5,107.5,107.5,157.5,170,-175,170,440,SBD
1,Roger Hamilton-Smith,M,1975,44,Raw,Masters 1,68.95,74,162.5,172.5,180,180,107.5,115,120,120,212.5,222.5,232.5,232.5,532.5,SBD
DQ,John Lefuel,M,1975,44,Raw,Masters 1,78.2,83,,,,,127.5,-130,-130,127.5,,,,,,SBD
1,Patrick Talbot,M,1978,40,Raw,Masters 1,106.55,120,250,265,-272.5,265,170,180,-188,180,235,250,,250,695,SBD
1,Oussama Khorcha,M,1994,25,Raw,Open,60.95,66,142.5,152.5,162.5,162.5,75,85,-95,85,180,195,207.5,207.5,455,SBD
1,Vincent Dion,M,1993,26,Raw,Open,72.75,74,202.5,210,215,215,150,156,-160,156,232.5,240,242.5,242.5,613.5,SBD
2,Maxime Girard-Lanoue,M,1992,27,Raw,Open,72.85,74,-150,155,160,160,105,112.5,-117.5,112.5,170,-180,-180,170,442.5,SBD
1,Louis-Alexis Gratton,M,1992,27,Raw,Open,80.05,83,225,235,240,240,165,175,-180,175,265,280,285,285,700,SBD
2,Charif Zobiri,M,1982,37,Raw,Open,77.6,83,135,142.5,147.5,147.5,95,100,102.5,102.5,227.5,240,-250,240,490,SBD
1,Benoit Tessier,M,1994,25,Raw,Open,91.55,93,215,227.5,240,240,130,135,-140,135,250,265,-285,265,640,SBD
2,Covito Tuon,M,1985,34,Raw,Open,88.75,93,170,180,-190,180,100,105,-110,105,205,215,225,225,510,SBD
DQ,Jonathan Simard,M,1985,34,Raw,Open,88.3,93,,,,,135,150,165,165,,,,,,SBD
1,Guillaume Valliéres-Larocque,M,1988,31,Raw,Open,99.15,105,210,225,235,235,150,160,-162.5,160,240,255,265,265,660,SBD
2,Taha Mrini,M,1994,25,Raw,Open,102.35,105,197.5,212.5,227.5,227.5,122.5,130,137.5,137.5,207.5,222.5,232.5,232.5,597.5,SBD
3,Vincent Héroux,M,1992,27,Raw,Open,95.05,105,165,175,180,180,107.5,115,117.5,117.5,270,280,285,285,582.5,SBD
1,Joan Qendro,M,1994,25,Raw,Open,108.05,120,245,265,,265,162.5,170,172.5,172.5,285,-307.5,-310,285,722.5,SBD
2,Alexis Ouimet,M,1993,25,Raw,Open,116.4,120,205,215,220,220,147.5,157.5,-165,157.5,225,240,-245,240,617.5,SBD
3,Jordan Di Ninni,M,1989,30,Raw,Open,116.3,120,215,222.5,-227.5,222.5,132.5,140,-147.5,140,215,,,215,577.5,SBD
1,Abel Dontigny-Patry,M,1988,31,Raw,Open,127.8,120+,227.5,247.5,257.5,257.5,152.5,167.5,170,170,-262.5,280,-295,280,707.5,SBD
1,Fuji Chen,M,2001,18,Raw,Sub-Juniors,90.05,93,162.5,172.5,-177.5,172.5,85,87.5,92.5,92.5,175,187.5,195,195,460,SBD
1,Alex Rogers,M,2002,17,Raw,Sub-Juniors,138.2,120+,-212.5,212.5,215,215,105,107.5,110,110,212.5,217.5,225,225,550,SBD
